{
    "roots": {
        "sync_folder/sncapappsfrancedev": {
            "host": "sncapappsfrancedev.service-now.com",
            "user": "<your username>",
            "pass": "<your password>"
        }
    },
    "search": {
        "mine": {
            "query":                "active=true^sys_updated_by=javascript:gs.getUserName()^ORsys_created_by=javascript:gs.getUserName()^ORDERBYDESCsys_updated_on",
            "records_per_search":   "10"
        },
        "ui_pages": {
            "query":                "active=true",
            "records_per_search":   "10",
            "download":             true,
            "table":                "sys_ui_page"
        },
        "script_includes": {
            "query":                "active=true",
            "table":                "sys_script_include",
            "download":             true,
            "records_per_search":   "10"
        }
    }
}
